{
  "jokes": [
    {
      "id": 3,
      "title": "Andrei",
      "content": "Chuck Norris doesn't shower, he only takes blood baths."
    },
    {
      "id": 4,
      "title": "json-server3",
      "content": "Chuck Norris doesn't shower, he only takes blood baths."
    },
    {
      "id": 5,
      "title": "json-server3",
      "content": "Chuck Norris doesn't shower, he only takes blood baths."
    },
    {
      "id": 6,
      "title": "json-server3",
      "content": "Chuck Norris doesn't shower, he only takes blood baths."
    }
  ]
}